{
  "compilerOptions": {
    "baseUrl": "./",
    "module": "ESNext",
    "paths": {
      "Pages/*": ["src/pages/*"],
      "CComps/*": ["src/commonComps/*"],
      "Cont/*": ["src/containers/*"],
      "GlobalProvider/*": ["src/GlobalProvider/*"],
      "GlobalLayout/*": ["src/GlobalLayout/*"],
      "Utils/*": ["src/cUtils/*"],
      "Others/*": ["src/others/*"],
      "Services/*": ["src/services/*"],
      "AppConfig/*": ["src/appConfig/*"],
      "@Redux/*": ["src/redux/*"],
      "@Declarations": ["src/declarations.d.ts"],
      "Images/*": ["public/images/*"],
      "Styles/*": ["public/styles/*"]
    }
  }
}
